{
    "error": false,
    "message": "Successfully",
    "status_code": 200,
    "data": [
        {
            "id": 1,
            "user_id_input": "d290f1ee-6c54-4b01-90e6-d701748f0851",
            "is_approve": true,
            "perusahaan_id": "d290f1ee-6c54-4b01-90e6-d701748f0851",
            "jenis_angkutan_id": "65cb1a32-3d7c-4e0c-8e90-2a5f3e6761cb",
            "trayek_id": "e02a946b-8a8a-4a5e-bd68-e6c7a282f1d8",
            "rute_trayek_id": "3c5e5763-3e6b-4e8f-9d7d-bf41f5ec35b0",
            "jenis_layanan_id": "5c7e812a-8a8b-4a6e-9e5d-bd75f5b9c7f0",
            "kendaraan_id": "a123b456-7c8d-9e0f-1g2h-3i4j5k6l7m8n",
            "masa_berlaku_kps": "2024-12-31",
            "masa_berlaku_uji_berkala": "2024-06-30",
            "nomor_uji_berkala": "1234567890",
            "nomor_srut": "SRUT2023001",
            "nomor_kartu_pengawas_kps": "KPS2023001",
            "created_at": "2023-01-01T10:00:00",
            "updated_at": "2023-01-01T10:00:00",
            "deleted_at": null
        },
        {
            "id": 2,
            "user_id_input": "f0a123cd-2b8b-4d6b-a03b-8a64219d7e7d",
            "is_approve": false,
            "perusahaan_id": "c345d678-9e0f-1g2h-3i4j-5k6l7m8n9o0p",
            "jenis_angkutan_id": "76de1a32-4d7e-4f0c-9e90-3a6f3e7871db",
            "trayek_id": "45a2d9eb-3e6a-4e3b-8c5a-657d9d2a7d9e",
            "rute_trayek_id": "7d8e913a-9b8c-4b7e-9f6d-cd86f5c8d8f1",
            "jenis_layanan_id": "65b3d8cb-4e7a-4e4b-9c6a-758d9e3a8e8f",
            "kendaraan_id": "b234c567-8d9e-0f1g-2h3i-4j5k6l7m8n9o",
            "masa_berlaku_kps": "2025-01-01",
            "masa_berlaku_uji_berkala": "2024-07-31",
            "nomor_uji_berkala": "0987654321",
            "nomor_srut": "SRUT2023002",
            "nomor_kartu_pengawas_kps": "KPS2023002",
            "created_at": "2023-02-01T11:00:00",
            "updated_at": "2023-02-01T11:00:00",
            "deleted_at": null
        },
        {
            "id": 3,
            "user_id_input": "e02a946b-8a8a-4a5e-bd68-e6c7a282f1d8",
            "is_approve": true,
            "perusahaan_id": "a7c123ab-3c8a-4e6b-a02b-7a54209d8c5d",
            "jenis_angkutan_id": "87ef1b32-5d8f-4f1c-0a90-4b7g3e8982fc",
            "trayek_id": "3c5e5763-3e6b-4e8f-9d7d-bf41f5ec35b0",
            "rute_trayek_id": "5c7e812a-8a8b-4a6e-9e5d-bd75f5b9c7f0",
            "jenis_layanan_id": "76de1a32-4d7e-4f0c-9e90-3a6f3e7871db",
            "kendaraan_id": "c345d678-9e0f-1g2h-3i4j-5k6l7m8n9o0p",
            "masa_berlaku_kps": "2024-11-30",
            "masa_berlaku_uji_berkala": "2024-08-31",
            "nomor_uji_berkala": "1122334455",
            "nomor_srut": "SRUT2023003",
            "nomor_kartu_pengawas_kps": "KPS2023003",
            "created_at": "2023-03-01T12:00:00",
            "updated_at": "2023-03-01T12:00:00",
            "deleted_at": null
        }
    ],
    "pagination": {
        "total": 34,
        "count": 10,
        "per_page": 10,
        "current_page": 1,
        "total_pages": 4
    }
}
