{
    "error": false,
    "message": "Successfully",
    "status_code": 200,
    "data": [
        {
            "id": "d290f1ee-6c54-4b01-90e6-d701748f0851",
            "user_id_input": "3b01d8d4-4c6b-456c-bb2d-f1a9a1c2b945",
            "nama": "PT Maju Jaya",
            "nib": "1234567890123",
            "alamat": "Jl. Jendral Sudirman No.1, Jakarta Pusat",
            "provinsi_id": "e02a946b-8a8a-4a5e-bd68-e6c7a282f1d8",
            "kota_id": "3c5e5763-3e6b-4e8f-9d7d-bf41f5ec35b0",
            "nama_pimpinan": "Budi Santoso",
            "email": "budi@majujaya.com",
            "no_telpon_perusahaan": "+622112345678",
            "no_telpon_penanggung_jawab": "+6281234567890",
            "nomor_npwp": "12.345.678.9-012.345",
            "jenis_angkutan_id": "65cb1a32-3d7c-4e0c-8e90-2a5f3e6761cb",
            "no_sk_izin_penyelenggaraan": "SK-2023-001",
            "tanggal_sk_terbit": "2023-01-01T10:00:00",
            "tanggal_sk_expired": "2025-01-01T10:00:00",
            "created_at": "2023-01-01T10:00:00",
            "updated_at": "2023-01-01T10:00:00",
            "deleted_at": null
        },
        {
            "id": "a7c123ab-3c8a-4e6b-a02b-7a54209d8c5d",
            "user_id_input": "4c6d7e8f-2a3b-4c5d-9e7f-bd7a2f1e3c6d",
            "nama": "CV Sejahtera",
            "nib": "9876543210987",
            "alamat": "Jl. Gatot Subroto No.10, Bandung",
            "provinsi_id": "45a2d9eb-3e6a-4e3b-8c5a-657d9d2a7d9e",
            "kota_id": "5c7e812a-8a8b-4a6e-9e5d-bd75f5b9c7f0",
            "nama_pimpinan": "Andi Wijaya",
            "email": "andi@sejahtera.com",
            "no_telpon_perusahaan": "+622212345678",
            "no_telpon_penanggung_jawab": "+6289876543210",
            "nomor_npwp": "98.765.432.1-098.765",
            "jenis_angkutan_id": "76de1a32-4d7e-4f0c-9e90-3a6f3e7871db",
            "no_sk_izin_penyelenggaraan": "SK-2023-002",
            "tanggal_sk_terbit": "2023-02-01T11:00:00",
            "tanggal_sk_expired": "2025-02-01T11:00:00",
            "created_at": "2023-02-01T11:00:00",
            "updated_at": "2023-02-01T11:00:00",
            "deleted_at": null
        },
        {
            "id": "f0a123cd-2b8b-4d6b-a03b-8a64219d7e7d",
            "user_id_input": "5d8e9f0a-3b2c-4d5e-9a7b-c8d7e6f1a2b3",
            "nama": "PT Sukses Abadi",
            "nib": "1122334455667",
            "alamat": "Jl. Ahmad Yani No.20, Surabaya",
            "provinsi_id": "65b3d8cb-4e7a-4e4b-9c6a-758d9e3a8e8f",
            "kota_id": "7d8e913a-9b8c-4b7e-9f6d-cd86f5c8d8f1",
            "nama_pimpinan": "Siti Aminah",
            "email": "siti@suksesabadi.com",
            "no_telpon_perusahaan": "+623112345678",
            "no_telpon_penanggung_jawab": "+6282233445566",
            "nomor_npwp": "11.223.344.5-566.777",
            "jenis_angkutan_id": "87ef1b32-5d8f-4f1c-0a90-4b7g3e8982fc",
            "no_sk_izin_penyelenggaraan": "SK-2023-003",
            "tanggal_sk_terbit": "2023-03-01T12:00:00",
            "tanggal_sk_expired": "2025-03-01T12:00:00",
            "created_at": "2023-03-01T12:00:00",
            "updated_at": "2023-03-01T12:00:00",
            "deleted_at": null
        }
    ],
    "pagination": {
        "total": 34,
        "count": 10,
        "per_page": 10,
        "current_page": 1,
        "total_pages": 4
    }
}
