{
    "error": false,
    "message": "Successfully",
    "status_code": 200,
    "data": [
        {
            "id": "e4f5a6b7-c8d9-0123-4567-890abcdef123",
            "user_id_input": "9a8b7c6d-5e4f-3210-1a2b-3c4d5e6f7a8b",
            "trayek_id": "b1c2d3e4-f5a6-7890-1234-56789abcdef0",
            "nama": "Rute 1",
            "latitude": "-6.200001",
            "longitude": "106.816667",
            "keterangan": "Rute 1 untuk Trayek A",
            "created_at": "2023-01-01T08:30:00",
            "updated_at": "2023-01-01T08:30:00",
            "deleted_at": null
        },
        {
            "id": "f5a6b7c8-d9e0-1234-5678-90abcdef1234",
            "user_id_input": "1b2c3d4e-5f6a-7b8c-9d0e-1f2a3b4c5d6e",
            "trayek_id": "c2d3e4f5-a6b7-8901-2345-67890abcdef1",
            "nama": "Rute 2",
            "latitude": "-7.250001",
            "longitude": "112.750001",
            "keterangan": "Rute 2 untuk Trayek B",
            "created_at": "2023-02-01T09:30:00",
            "updated_at": "2023-02-01T09:30:00",
            "deleted_at": null
        },
        {
            "id": "a6b7c8d9-e0f1-2345-6789-0abcdef12345",
            "user_id_input": "2c3d4e5f-6a7b-8c9d-0e1f-2a3b4c5d6e7f",
            "trayek_id": "d3e4f5a6-b7c8-9012-3456-7890abcdef2",
            "nama": "Rute 3",
            "latitude": "-6.914745",
            "longitude": "107.609811",
            "keterangan": "Rute 3 untuk Trayek C",
            "created_at": "2023-03-01T10:30:00",
            "updated_at": "2023-03-01T10:30:00",
            "deleted_at": null
        }
    ],
    "pagination": {
        "total": 34,
        "count": 10,
        "per_page": 10,
        "current_page": 1,
        "total_pages": 4
    }
}
