{
    "error": false,
    "message": "Successfully",
    "status_code": 200,
    "data": [
        {
            "id": "b1c2d3e4-f5a6-7890-1234-56789abcdef0",
            "user_id_input": "9a8b7c6d-5e4f-3210-1a2b-3c4d5e6f7a8b",
            "nama": "Trayek A",
            "kode": "TA123",
            "latitude": "-6.200000",
            "longitude": "106.816666",
            "keterangan": "Trayek dari Jakarta ke Bandung",
            "created_at": "2023-01-01T08:00:00",
            "updated_at": "2023-01-01T08:00:00",
            "deleted_at": null
        },
        {
            "id": "c2d3e4f5-a6b7-8901-2345-67890abcdef1",
            "user_id_input": "1b2c3d4e-5f6a-7b8c-9d0e-1f2a3b4c5d6e",
            "nama": "Trayek B",
            "kode": "TB456",
            "latitude": "-7.250000",
            "longitude": "112.750000",
            "keterangan": "Trayek dari Surabaya ke Malang",
            "created_at": "2023-02-01T09:00:00",
            "updated_at": "2023-02-01T09:00:00",
            "deleted_at": null
        },
        {
            "id": "d3e4f5a6-b7c8-9012-3456-7890abcdef2",
            "user_id_input": "2c3d4e5f-6a7b-8c9d-0e1f-2a3b4c5d6e7f",
            "nama": "Trayek C",
            "kode": "TC789",
            "latitude": "-6.914744",
            "longitude": "107.609810",
            "keterangan": "Trayek dari Bandung ke Jakarta",
            "created_at": "2023-03-01T10:00:00",
            "updated_at": "2023-03-01T10:00:00",
            "deleted_at": null
        }
    ],
    "pagination": {
        "total": 34,
        "count": 10,
        "per_page": 10,
        "current_page": 1,
        "total_pages": 4
    }
}
